Census Bureau ABS API Vignette
…
fam3<-FS_df2 %>% 
    select(SECTOR,SUBSECTOR, FIRMPDEMP,EMP,BUSCHAR, everything()) %>% 
     group_by(SECTOR,SEX,BUSCHAR) %>% 
    summarize(Firms = sum(FIRMPDEMP))

## `summarise()` has grouped output by 'SECTOR', 'SEX'. You can override using the
## `.groups` argument.

   # rename("Family_Firms"="BM", "NonFamily_Firms"="BN")
#Tables
fam3

## # A tibble: 76 x 4
## # Groups:   SECTOR, SEX [38]
##    SECTOR SEX   BUSCHAR Firms
##    <fct>  <fct> <fct>   <dbl>
##  1 11     002   BM        160
##  2 11     002   BN        913
##  3 11     003   BM       1495
##  4 11     003   BN       3790
##  5 21     002   BM         67
##  6 21     002   BN        188
##  7 21     003   BM        866
##  8 21     003   BN       3149
##  9 22     002   BM          0
## 10 22     002   BN         19
## # i 66 more rows
…
